{
  "Bars": [
    {
      "id": "1",
      "title": "The London Town",
      "address": "14 Rue des Prêtres, 31000 Toulouse",
      "description": "A traditional English pub, set in the midst of the hustle and bustle of the fashionable shopping district of Carmes, the London Town is an institution in Toulouse and soon celebrating its 25th anniversary.",
      "nbLike": 0
    },
    {
      "id": "2",
      "title": "Chez tonton, Pastis Ô Maître",
      "address": "16 Place Saint-Pierre, 31000 Toulouse",
      "description": "Bar historique et populaire de la Place Saint-Pierre. Un jour, un jaune (ou plusieurs...).🥃",
      "nbLike": 0
    },
    {
      "id": "3",
      "title": "L'HEURE DU SINGE",
      "address": "59 Rue Riquet, 31000 Toulouse",
      "description": "Situé dans le quartier St Aubin à Toulouse, l'Heure du Singe vous propose des Cocktails conviviaux et pointus et des associations étonnantes. Produits maison et de saison... Le Singe ne recule devant aucune innovation: tout passe dans son shaker.",
      "nbLike": 0
    }
  ],
  "Me": [
    {
      "Name": "Kevin",
      "mail": "dumon-lalaoui@live.fr"
    }
  ]
}
